{
  "_class": "group",
  "do_objectID": "38667F21-DA74-4A8E-B67D-DC6F813CB6D0",
  "exportOptions": {
    "_class": "exportOptions",
    "exportFormats": [
    ],
    "includedLayerIds": [
    ],
    "layerOptions": 0,
    "shouldTrim": false
  },
  "frame": {
    "_class": "rect",
    "constrainProportions": false,
    "height": 18,
    "width": 229,
    "x": 237,
    "y": 58
  },
  "hasClickThrough": false,
  "isFlippedHorizontal": false,
  "isFlippedVertical": false,
  "isLocked": false,
  "isVisible": true,
  "layerListExpandedType": 0,
  "layers": [
    {
      "class": "shapeGroup",
      "id": "9B44D5C7-D34E-4638-BD89-DDDD8F974F40"
    },
    {
      "class": "text",
      "id": "04BDD56C-4688-4746-8E5A-A2717C244067"
    },
    {
      "class": "text",
      "id": "63A58AF7-2B93-4E1A-AA12-E4248E1F92AB"
    },
    {
      "class": "text",
      "id": "BF7BC73F-F8B7-472B-BB88-ABE02D230730"
    },
    {
      "class": "text",
      "id": "FBE3C3A0-F08F-4B83-8F52-6C6FDC582492"
    },
    {
      "class": "text",
      "id": "5E93F8FE-CD9B-4369-9A05-FE336A8067AB"
    }
  ],
  "name": "Breadcrumbs",
  "nameIsFixed": true,
  "resizingConstraint": 63,
  "resizingType": 0,
  "rotation": 0,
  "shouldBreakMaskChain": false,
  "style": {
    "_class": "style",
    "endDecorationType": 0,
    "miterLimit": 10,
    "startDecorationType": 0
  }
}