<?xml version="1.0" encoding="UTF-8"?>
<svg width="34px" height="32px" viewBox="0 0 34 32" version="1.1" xmlns="http://www.w3.org/2000/svg" xmlns:xlink="http://www.w3.org/1999/xlink">
    <!-- Generator: Sketch 62 (91390) - https://sketch.com -->
    <title>icon-gitlab-saas</title>
    <desc>Created with Sketch.</desc>
    <g id="Buy-Subscription" stroke="none" stroke-width="1" fill="none" fill-rule="evenodd">
        <g id="Buy-Products---v2--2" transform="translate(-745.000000, -161.000000)" fill="#1B69B6" fill-rule="nonzero">
            <g id="global-components/modals/small" transform="translate(464.000000, 81.000000)">
                <g id="Group-4" transform="translate(256.000000, 56.000000)">
                    <g id="icon-gitlab-saas" transform="translate(25.000000, 24.000000)">
                        <path d="M33.1637972,17.3456876 L31.4221663,11.9255497 C31.4200892,11.920357 31.4221663,11.9141258 31.4211278,11.9089331 L27.9659067,1.12473834 C27.7415822,0.451764706 27.1174199,0 26.411213,0 C26.4080974,0 26.4049817,0 26.4018661,0 C25.6946207,0.00415415822 25.0756511,0.460073022 24.8596349,1.13512373 L21.6380852,11.1829939 L11.6784909,11.1829939 L8.45174848,1.13616227 C8.23573225,0.460073022 7.61572414,0.00415415822 6.9084787,0 C6.90536308,0 6.90224746,0 6.89913185,0 C6.19188641,0 5.56876268,0.451764706 5.34132252,1.13616227 L1.89960243,11.895432 C1.89752535,11.9006247 1.89440974,11.9047789 1.89233266,11.9099716 L0.145509128,17.3456876 C-0.150474645,18.2689493 0.172511156,19.273217 0.949338742,19.8454523 L16.0341258,30.9536714 C16.0715132,30.9806734 16.1140933,30.9931359 16.1535578,31.0149452 C16.1618661,31.0190994 16.1660203,31.0263692 16.1743286,31.0315619 C16.1784828,31.0336389 16.1836755,31.0346775 16.1878296,31.0367546 C16.2002921,31.0429858 16.2127546,31.0461014 16.225217,31.0523327 C16.2345639,31.0564868 16.2439108,31.0627181 16.2532576,31.0668722 C16.2574118,31.0689493 16.2605274,31.0710264 16.2646815,31.0731034 C16.3093387,31.0907586 16.3539959,31.1063367 16.4007302,31.1177606 C16.4235781,31.1239919 16.4474645,31.1239919 16.4703124,31.1291846 C16.5315862,31.1385314 16.590783,31.1561866 16.6510183,31.1561866 C16.6749047,31.1561866 16.6977525,31.1437241 16.7226775,31.1416471 C16.7953753,31.1364544 16.868073,31.126069 16.9397323,31.1052982 C16.9532333,31.101144 16.9677728,31.1021826 16.9823124,31.0980284 C16.9916592,31.0949128 16.998929,31.0886815 17.0082759,31.0855659 C17.0352779,31.0751805 17.0602028,31.0637566 17.0861663,31.0523327 C17.0986288,31.04714 17.1110913,31.0429858 17.1235538,31.0367546 C17.1277079,31.0346775 17.1329006,31.0336389 17.1370548,31.0315619 C17.1547099,31.022215 17.1661339,31.0055984 17.183789,30.995213 C17.2118296,30.9785963 17.2440243,30.9692495 17.2710264,30.9505558 C17.2720649,30.9495172 17.274142,30.9495172 17.2751805,30.9484787 L32.3599675,19.8464909 C33.1367951,19.2742556 33.4608195,18.2689493 33.1637972,17.3456876 M10.160146,13.2652657 L13.848,24.7618986 L4.99652738,13.2652657 L10.160146,13.2652657 M19.4613063,24.7618986 L22.7659391,14.4564706 L23.1491602,13.260073 L28.3169331,13.260073 L22.6755862,20.5921623 L19.4613063,24.7670913 M26.4122515,3.08965517 L29.0065233,11.1829939 L23.8179797,11.1829939 L26.4122515,3.08965517 M20.9703043,13.260073 L17.9201136,22.7710183 L16.656211,26.7112373 L12.3441947,13.260073 L20.9703043,13.260073 M6.89601623,3.08965517 L9.49548073,11.1829939 L4.30693712,11.1829939 L6.89601623,3.08965517 M2.18000811,18.1723651 C2.12392698,18.1318621 2.10004057,18.050856 2.1218499,17.9802353 L3.26320487,14.4273915 L11.3336957,24.916641 L2.18000811,18.1765193 M31.1282596,18.1765193 L21.974572,24.9135254 L22.3276755,24.4544909 L30.0461014,14.4315456 L31.1864178,17.9833509 C31.2082272,18.0550101 31.1833022,18.1360162 31.1282596,18.1765193" id="Shape"></path>
                    </g>
                </g>
            </g>
        </g>
    </g>
</svg>