{
  "_class": "group",
  "do_objectID": "B65D385E-160A-47CF-8074-1F5EDE884621",
  "exportOptions": {
    "_class": "exportOptions",
    "exportFormats": [
    ],
    "includedLayerIds": [
    ],
    "layerOptions": 0,
    "shouldTrim": false
  },
  "frame": {
    "_class": "rect",
    "constrainProportions": false,
    "height": 28,
    "width": 647,
    "x": 607,
    "y": 702
  },
  "hasClickThrough": false,
  "isFlippedHorizontal": false,
  "isFlippedVertical": false,
  "isLocked": false,
  "isVisible": true,
  "layerListExpandedType": 2,
  "layers": [
    {
      "class": "shapeGroup",
      "id": "5D8CE95B-A068-4FA2-B7A4-7CF0E9085273"
    },
    {
      "class": "shapeGroup",
      "id": "5808FAB6-C897-4112-8E37-01D5BF655658"
    },
    {
      "class": "shapeGroup",
      "id": "92733365-0744-4AFB-B874-A9FE2F294BD8"
    },
    {
      "class": "text",
      "id": "8978F57E-8642-430C-82FE-8A569BC67A46"
    }
  ],
  "name": "new_epic copy 9",
  "nameIsFixed": true,
  "resizingConstraint": 63,
  "resizingType": 0,
  "rotation": 0,
  "shouldBreakMaskChain": false,
  "style": {
    "_class": "style",
    "endDecorationType": 0,
    "miterLimit": 10,
    "startDecorationType": 0
  }
}